<?xml version="1.0" encoding="UTF-8"?>
<testsuites>
  <testsuite name="" tests="44" assertions="183" failures="0" errors="0" time="124.634455">
    <testsuite name="Tests_Ajax_Autosave" file="/var/www/html/behoof/tests/phpunit/tests/ajax/Autosave.php" fullPackage="WordPress.UnitTests" package="WordPress" subpackage="UnitTests" tests="3" assertions="8" failures="0" errors="0" time="9.012794">
      <testcase name="test_autosave_post" class="Tests_Ajax_Autosave" file="/var/www/html/behoof/tests/phpunit/tests/ajax/Autosave.php" line="38" assertions="4" time="3.127419"/>
      <testcase name="test_with_invalid_nonce" class="Tests_Ajax_Autosave" file="/var/www/html/behoof/tests/phpunit/tests/ajax/Autosave.php" line="76" assertions="2" time="2.945165"/>
      <testcase name="test_with_invalid_post_id" class="Tests_Ajax_Autosave" file="/var/www/html/behoof/tests/phpunit/tests/ajax/Autosave.php" line="97" assertions="2" time="2.940210"/>
    </testsuite>
    <testsuite name="Tests_Ajax_CompressionTest" file="/var/www/html/behoof/tests/phpunit/tests/ajax/Compression.php" fullPackage="WordPress.UnitTests" package="WordPress" subpackage="UnitTests" tests="7" assertions="8" failures="0" errors="0" time="20.356391">
      <testcase name="test_logged_out" class="Tests_Ajax_CompressionTest" file="/var/www/html/behoof/tests/phpunit/tests/ajax/Compression.php" line="22" assertions="1" time="2.840717"/>
      <testcase name="test_text" class="Tests_Ajax_CompressionTest" file="/var/www/html/behoof/tests/phpunit/tests/ajax/Compression.php" line="36" assertions="1" time="2.950197"/>
      <testcase name="test_gzdeflate" class="Tests_Ajax_CompressionTest" file="/var/www/html/behoof/tests/phpunit/tests/ajax/Compression.php" line="58" assertions="1" time="3.015704"/>
      <testcase name="test_gzencode" class="Tests_Ajax_CompressionTest" file="/var/www/html/behoof/tests/phpunit/tests/ajax/Compression.php" line="85" assertions="1" time="2.896113"/>
      <testcase name="test_unknown_encoding" class="Tests_Ajax_CompressionTest" file="/var/www/html/behoof/tests/phpunit/tests/ajax/Compression.php" line="112" assertions="2" time="2.864484"/>
      <testcase name="test_set_yes" class="Tests_Ajax_CompressionTest" file="/var/www/html/behoof/tests/phpunit/tests/ajax/Compression.php" line="129" assertions="1" time="2.894836"/>
      <testcase name="test_set_no" class="Tests_Ajax_CompressionTest" file="/var/www/html/behoof/tests/phpunit/tests/ajax/Compression.php" line="154" assertions="1" time="2.894340"/>
    </testsuite>
    <testsuite name="Tests_Ajax_DeleteComment" file="/var/www/html/behoof/tests/phpunit/tests/ajax/DeleteComment.php" fullPackage="WordPress.UnitTests" package="WordPress" subpackage="UnitTests" tests="5" assertions="84" failures="0" errors="0" time="15.107027">
      <testcase name="test_ajax_comment_trash_actions_as_administrator" class="Tests_Ajax_DeleteComment" file="/var/www/html/behoof/tests/phpunit/tests/ajax/DeleteComment.php" line="255" assertions="35" time="3.183256"/>
      <testcase name="test_ajax_comment_trash_actions_as_subscriber" class="Tests_Ajax_DeleteComment" file="/var/www/html/behoof/tests/phpunit/tests/ajax/DeleteComment.php" line="276" assertions="2" time="2.900478"/>
      <testcase name="test_ajax_trash_comment_no_id" class="Tests_Ajax_DeleteComment" file="/var/www/html/behoof/tests/phpunit/tests/ajax/DeleteComment.php" line="297" assertions="35" time="3.067925"/>
      <testcase name="test_ajax_trash_comment_bad_nonce" class="Tests_Ajax_DeleteComment" file="/var/www/html/behoof/tests/phpunit/tests/ajax/DeleteComment.php" line="318" assertions="2" time="2.877792"/>
      <testcase name="test_ajax_trash_double_action" class="Tests_Ajax_DeleteComment" file="/var/www/html/behoof/tests/phpunit/tests/ajax/DeleteComment.php" line="339" assertions="10" time="3.077576"/>
    </testsuite>
    <testsuite name="Tests_Ajax_DimComment" file="/var/www/html/behoof/tests/phpunit/tests/ajax/DimComment.php" fullPackage="WordPress.UnitTests" package="WordPress" subpackage="UnitTests" tests="5" assertions="31" failures="0" errors="0" time="14.447736">
      <testcase name="test_with_bad_id" class="Tests_Ajax_DimComment" file="/var/www/html/behoof/tests/phpunit/tests/ajax/DimComment.php" line="167" assertions="3" time="2.845859"/>
      <testcase name="test_ajax_comment_dim_actions_as_administrator" class="Tests_Ajax_DimComment" file="/var/www/html/behoof/tests/phpunit/tests/ajax/DimComment.php" line="206" assertions="16" time="2.933534"/>
      <testcase name="test_ajax_comment_dim_actions_as_subscriber" class="Tests_Ajax_DimComment" file="/var/www/html/behoof/tests/phpunit/tests/ajax/DimComment.php" line="216" assertions="2" time="2.900075"/>
      <testcase name="test_ajax_dim_comment_no_id" class="Tests_Ajax_DimComment" file="/var/www/html/behoof/tests/phpunit/tests/ajax/DimComment.php" line="225" assertions="8" time="2.889669"/>
      <testcase name="test_ajax_dim_comment_bad_nonce" class="Tests_Ajax_DimComment" file="/var/www/html/behoof/tests/phpunit/tests/ajax/DimComment.php" line="234" assertions="2" time="2.878599"/>
    </testsuite>
    <testsuite name="Tests_Ajax_EditComment" file="/var/www/html/behoof/tests/phpunit/tests/ajax/EditComment.php" fullPackage="WordPress.UnitTests" package="WordPress" subpackage="UnitTests" tests="4" assertions="11" failures="0" errors="0" time="11.722882">
      <testcase name="test_as_admin" class="Tests_Ajax_EditComment" file="/var/www/html/behoof/tests/phpunit/tests/ajax/EditComment.php" line="39" assertions="5" time="2.866582"/>
      <testcase name="test_as_subscriber" class="Tests_Ajax_EditComment" file="/var/www/html/behoof/tests/phpunit/tests/ajax/EditComment.php" line="82" assertions="2" time="2.822418"/>
      <testcase name="test_bad_nonce" class="Tests_Ajax_EditComment" file="/var/www/html/behoof/tests/phpunit/tests/ajax/EditComment.php" line="108" assertions="2" time="2.844974"/>
      <testcase name="test_invalid_comment" class="Tests_Ajax_EditComment" file="/var/www/html/behoof/tests/phpunit/tests/ajax/EditComment.php" line="134" assertions="2" time="3.188907"/>
    </testsuite>
    <testsuite name="Tests_Ajax_GetComments" file="/var/www/html/behoof/tests/phpunit/tests/ajax/GetComments.php" fullPackage="WordPress.UnitTests" package="WordPress" subpackage="UnitTests" tests="5" assertions="13" failures="0" errors="0" time="14.358536">
      <testcase name="test_as_admin" class="Tests_Ajax_GetComments" file="/var/www/html/behoof/tests/phpunit/tests/ajax/GetComments.php" line="50" assertions="5" time="2.933017"/>
      <testcase name="test_as_subscriber" class="Tests_Ajax_GetComments" file="/var/www/html/behoof/tests/phpunit/tests/ajax/GetComments.php" line="87" assertions="2" time="2.822176"/>
      <testcase name="test_bad_nonce" class="Tests_Ajax_GetComments" file="/var/www/html/behoof/tests/phpunit/tests/ajax/GetComments.php" line="107" assertions="2" time="2.891731"/>
      <testcase name="test_invalid_post" class="Tests_Ajax_GetComments" file="/var/www/html/behoof/tests/phpunit/tests/ajax/GetComments.php" line="127" assertions="2" time="2.855448"/>
      <testcase name="test_post_with_no_comments" class="Tests_Ajax_GetComments" file="/var/www/html/behoof/tests/phpunit/tests/ajax/GetComments.php" line="147" assertions="2" time="2.856164"/>
    </testsuite>
    <testsuite name="Tests_Ajax_MediaEdit" file="/var/www/html/behoof/tests/phpunit/tests/ajax/MediaEdit.php" fullPackage="WordPress.UnitTests" package="WordPress" subpackage="UnitTests" tests="1" assertions="4" failures="0" errors="0" time="2.278339">
      <testcase name="testCropImageThumbnail" class="Tests_Ajax_MediaEdit" file="/var/www/html/behoof/tests/phpunit/tests/ajax/MediaEdit.php" line="77" assertions="4" time="2.278339"/>
    </testsuite>
    <testsuite name="Tests_Ajax_ReplytoComment" file="/var/www/html/behoof/tests/phpunit/tests/ajax/ReplytoComment.php" fullPackage="WordPress.UnitTests" package="WordPress" subpackage="UnitTests" tests="6" assertions="14" failures="0" errors="0" time="17.479905">
      <testcase name="test_as_admin" class="Tests_Ajax_ReplytoComment" file="/var/www/html/behoof/tests/phpunit/tests/ajax/ReplytoComment.php" line="50" assertions="5" time="2.855859"/>
      <testcase name="test_as_subscriber" class="Tests_Ajax_ReplytoComment" file="/var/www/html/behoof/tests/phpunit/tests/ajax/ReplytoComment.php" line="94" assertions="2" time="2.856588"/>
      <testcase name="test_bad_nonce" class="Tests_Ajax_ReplytoComment" file="/var/www/html/behoof/tests/phpunit/tests/ajax/ReplytoComment.php" line="121" assertions="2" time="2.866413"/>
      <testcase name="test_invalid_post" class="Tests_Ajax_ReplytoComment" file="/var/www/html/behoof/tests/phpunit/tests/ajax/ReplytoComment.php" line="148" assertions="2" time="2.845350"/>
      <testcase name="test_with_draft_post" class="Tests_Ajax_ReplytoComment" file="/var/www/html/behoof/tests/phpunit/tests/ajax/ReplytoComment.php" line="168" assertions="2" time="3.177716"/>
      <testcase name="test_blocked_comment" class="Tests_Ajax_ReplytoComment" file="/var/www/html/behoof/tests/phpunit/tests/ajax/ReplytoComment.php" line="189" assertions="1" time="2.877979"/>
    </testsuite>
    <testsuite name="Tests_Ajax_Response" file="/var/www/html/behoof/tests/phpunit/tests/ajax/Response.php" fullPackage="WordPress.UnitTests" package="WordPress" subpackage="UnitTests" tests="2" assertions="2" failures="0" errors="0" time="1.840087">
      <testcase name="test_response_charset_in_header" class="Tests_Ajax_Response" file="/var/www/html/behoof/tests/phpunit/tests/ajax/Response.php" line="69" assertions="1" time="1.831926"/>
      <testcase name="test_response_charset_in_xml" class="Tests_Ajax_Response" file="/var/www/html/behoof/tests/phpunit/tests/ajax/Response.php" line="91" assertions="1" time="0.008161"/>
    </testsuite>
    <testsuite name="Tests_Ajax_TagSearch" file="/var/www/html/behoof/tests/phpunit/tests/ajax/TagSearch.php" fullPackage="WordPress.UnitTests" package="WordPress" subpackage="UnitTests" tests="6" assertions="8" failures="0" errors="0" time="18.030759">
      <testcase name="test_post_tag" class="Tests_Ajax_TagSearch" file="/var/www/html/behoof/tests/phpunit/tests/ajax/TagSearch.php" line="40" assertions="1" time="2.917339"/>
      <testcase name="test_no_results" class="Tests_Ajax_TagSearch" file="/var/www/html/behoof/tests/phpunit/tests/ajax/TagSearch.php" line="63" assertions="1" time="2.822280"/>
      <testcase name="test_with_comma" class="Tests_Ajax_TagSearch" file="/var/www/html/behoof/tests/phpunit/tests/ajax/TagSearch.php" line="81" assertions="1" time="2.878603"/>
      <testcase name="test_logged_out" class="Tests_Ajax_TagSearch" file="/var/www/html/behoof/tests/phpunit/tests/ajax/TagSearch.php" line="104" assertions="2" time="3.134943"/>
      <testcase name="test_invalid_tax" class="Tests_Ajax_TagSearch" file="/var/www/html/behoof/tests/phpunit/tests/ajax/TagSearch.php" line="121" assertions="1" time="2.810602"/>
      <testcase name="test_unprivileged_user" class="Tests_Ajax_TagSearch" file="/var/www/html/behoof/tests/phpunit/tests/ajax/TagSearch.php" line="138" assertions="2" time="3.466992"/>
    </testsuite>
  </testsuite>
</testsuites>
